data clean
…
irr_table <- tidy(model_nb, conf.int = TRUE, exponentiate = TRUE)
irr_table

## # A tibble: 24 × 7
##    term                 estimate std.error statistic  p.value conf.low conf.high
##    <chr>                   <dbl>     <dbl>     <dbl>    <dbl>    <dbl>     <dbl>
##  1 (Intercept)            28.6      0.521      6.43  1.24e-10   11.4      89.1  
##  2 seasonSummer            0.891    0.0900    -1.28  2.01e- 1    0.744     1.06 
##  3 seasonFall              0.927    0.0946    -0.798 4.25e- 1    0.769     1.11 
##  4 seasonWinter            0.731    0.154     -2.03  4.20e- 2    0.544     0.997
##  5 time_periodAfternoon    1.35     0.0894     3.34  8.47e- 4    1.12      1.61 
##  6 time_periodNight        1.25     0.0951     2.38  1.74e- 2    1.03      1.51 
##  7 time_periodMidnight     1.17     0.104      1.51  1.31e- 1    0.950     1.44 
##  8 boroughBrooklyn         1.15     0.0863     1.66  9.60e- 2    0.979     1.37 
##  9 boroughManhattan        1.68     0.0737     7.01  2.33e-12    1.46      1.92 
## 10 boroughQueens           1.28     0.0747     3.31  9.31e- 4    1.11      1.48 
## # ℹ 14 more rows
…
