Model
…
irr_table <- tidy(model_nb, conf.int = TRUE, exponentiate = TRUE)
irr_table

## # A tibble: 23 × 7
##    term                estimate std.error statistic  p.value conf.low conf.high
##    <chr>                  <dbl>     <dbl>     <dbl>    <dbl>    <dbl>     <dbl>
##  1 (Intercept)           17.9      0.470      6.14  8.10e-10    7.99     51.6  
##  2 seasonSpring           1.07     0.0948     0.730 4.66e- 1    0.891     1.29 
##  3 seasonSummer           0.973    0.0605    -0.456 6.48e- 1    0.863     1.10 
##  4 seasonWinter           0.770    0.150     -1.75  7.98e- 2    0.580     1.04 
##  5 time_periodMidnight    0.861    0.0757    -1.98  4.76e- 2    0.742     1.00 
##  6 time_periodMorning     0.737    0.0896    -3.41  6.45e- 4    0.616     0.885
##  7 time_periodNight       0.924    0.0606    -1.31  1.92e- 1    0.820     1.04 
##  8 boroughBrooklyn        1.13     0.0863     1.45  1.47e- 1    0.961     1.34 
##  9 boroughManhattan       1.64     0.0735     6.69  2.18e-11    1.43      1.88 
## 10 boroughQueens          1.25     0.0747     2.98  2.89e- 3    1.08      1.45 
## # ℹ 13 more rows
…
