Modeling_R_final
…
irr_table <- tidy(model_nb, conf.int = TRUE, exponentiate = TRUE)
irr_table

## # A tibble: 24 × 7
##    term                estimate std.error statistic  p.value conf.low conf.high
##    <chr>                  <dbl>     <dbl>     <dbl>    <dbl>    <dbl>     <dbl>
##  1 (Intercept)           35.8      0.514      6.97  3.26e-12   14.4     110.   
##  2 seasonSpring           1.08     0.0946     0.798 4.25e- 1    0.897     1.30 
##  3 seasonSummer           0.961    0.0605    -0.655 5.12e- 1    0.853     1.08 
##  4 seasonWinter           0.788    0.149     -1.59  1.11e- 1    0.594     1.07 
##  5 time_periodMidnight    0.869    0.0755    -1.86  6.29e- 2    0.749     1.01 
##  6 time_periodMorning     0.742    0.0894    -3.34  8.47e- 4    0.621     0.892
##  7 time_periodNight       0.931    0.0605    -1.19  2.34e- 1    0.826     1.05 
##  8 boroughBrooklyn        1.15     0.0863     1.66  9.60e- 2    0.979     1.37 
##  9 boroughManhattan       1.68     0.0737     7.01  2.33e-12    1.46      1.92 
## 10 boroughQueens          1.28     0.0747     3.31  9.31e- 4    1.11      1.48 
## # ℹ 14 more rows
…
